/Users/lacouf/Dropbox/CEGEP-AL/420-504-AL/Semaine1/ArgManBase/Source/ArgMan.java
/Users/lacouf/Dropbox/CEGEP-AL/420-504-AL/Semaine1/ArgManBase/Source/ArgManStub.java
/Users/lacouf/Dropbox/CEGEP-AL/420-504-AL/Semaine1/ArgManBase/Source/ExempleUtilisation.java
